Manholes 51
ID  X Y Z INFLOW
235 7375 1375 1.765718 0.00241554259929287
361 8125 2125 9.5917228656 0.0115111639685121
360 7875 2125 9.8448550288 0.0041159733796296
359 7625 2125 5.8579292992 0.00433403819444441
322 8625 1875 9.98557414559999 0.00256885709379122
321 8375 1875 9.0395193168 0.00311262999971778
320 8125 1875 7.3643128704 0.00507056648592085
319 7875 1875 4.9107240832 0.00447032870370367
316 7125 1875 2.0056675552 0.00194895428240741
317 7375 1875 2.170794024 0.00344814988425923
318 7625 1875 3.7497703968 0.00403419907407407
282 8875 1625 12.5749679679999 0.021683921133847
281 8625 1625 9.98006078879999 0.00194169360349759
280 8375 1625 5.9471760768 0.0041704895833333
197 8125 1125 1.8141501776 0.00265450322634449
238 8125 1375 2.1691901264 0.00407508622685185
279 8125 1625 5.228147056 0.00440218344907407
196 7875 1125 1.995950616 0.00108980596073376
237 7875 1375 1.7943166368 0.00298261982672184
278 7875 1625 3.1555652112 0.00259591364134006
112 7375 625 1.7815404096 0
194 7375 1125 1.894858336 0.00224533994286212
195 7625 1125 1.8493573232 0.0134075262024036
234 7125 1375 2.1595040896 0.000694155946724378
236 7625 1375 1.7753931776 0.00259778929106101
275 7125 1625 2.3274102 0.00139016319444444
276 7375 1625 1.8516353952 0.00363978848522324
277 7625 1625 2.19092048 0.00241308635627537
241 8875 1375 13.116026368 0.00282121354166667
240 8625 1375 8.2696411872 0.00358444039351849
155 7875 875 3.8607183392 0.00442991671581684
156 8125 875 2.1364759088 0.00954504808158926
157 8375 875 1.9968719872 0.00415930516340056
198 8375 1125 2.3381283008 0.00695371139798957
239 8375 1375 3.7605919328 0.00580749400225136
159 8875 875 7.35319694083 0.000370892812959789
200 8875 1125 11.1279674828 0.00159459895833333
115 8125 625 3.4929839632 0.0309652557548199
116 8375 625 2.3094678544 0.00489385019146369
158 8625 875 3.2302081312 0.000724199011035008
199 8625 1125 7.4167936912 0.00285178172869736
114 7875 625 5.6987999616 0.00501037403126582
74 8125 375 3.9177938512 0.00419774768518515
75 8375 375 3.1622205072 0.00230330960648148
73 7875 375 3.6688265536 0.00132201793981481
113 7625 625 3.2090355712 0.00243960011574074
153 7375 875 3.2829771872 0.00158498829048389
154 7625 875 3.9349924704 0.00684087252863391
33 8125 125 3.55803318301 0.000449758680555552
34 8375 125 3.93457836875 0.000859341440052638
357 7125 2125 1.985057664 -0.222724187808247
Sections 50
v1 v2 slope intercept
33 75 0.00111952730857 1
34 75 0.0030894314462 1
73 113 0.00130048528633 1
74 116 0.00454903287478 1
75 116 0.0034110106112 1
112 235 0.000021096546133 1
113 112 0.0057099806464 1
114 156 0.0100757739781 1
115 157 0.00423164369458 1
116 157 0.0012503834688 1
153 112 0.0060057471104 1
154 112 0.00609088222061 1
155 197 0.00578856890091 1
156 197 0.0012893029248 1
157 197 0.000516815322555 1
158 157 0.004933344576 1
159 158 0.0164919552385 1
194 235 0.000516561344 1
195 235 0.000236567730434 1
196 236 0.000623830641335 1
197 237 0.000056097724779 1
198 197 0.0020959124928 1
199 157 0.0153298535616 1
200 158 0.0223382367747 1
234 235 0.0015751443584 1
235 357 0.000277445167782 1
236 235 0.0000387007104 1
237 236 0.0000756938368 1
238 237 0.0014994939584 1
239 197 0.00550536865715 1
240 198 0.0167768519387 1
241 199 0.0161198642933 1
275 235 0.00158870545424 1
276 235 0.0003436695808 1
277 235 0.00120265422794 1
278 236 0.00390371601665 1
279 237 0.00971233909944 1
280 238 0.010685757939 1
281 239 0.0175913144138 1
282 240 0.0121773030477 1
316 276 0.000435668739427 1
317 276 0.0012766345152 1
318 276 0.00536873652496 1
319 277 0.00769276628527 1
320 278 0.0119041360405 1
321 279 0.010780188685 1
322 280 0.0114223146383 1
359 317 0.010428793425 1
360 318 0.0172395027008 1
361 319 0.013239863927 1