Manholes 21
1 0 0 160.5
2 160 0 160.49
3 300 -50 160.5
4 0 -130 160.49
5 145 -150 160.5
6 285 -130 160.49
7 410 -170 160.5
8 110 -270 160.49
9 250 -280 160.5
10 40 -410 160.49
11 145 -420 160.5
12 290 -390 160.49
13 430 -360 160.5
14 150 -540 160.49
15 310 -580 160.5
16 440 -550 160.49
17 70 -605 160.5
18 230 -700 160.49
19 400 -695 160.5
20 400 -860 160.49
21 410 -865 160
Sections 32
1 2 C 0.0375
2 5 I 0.0025
2 6 C 0.0725
3 2 C 0.0275
4 1 C 0.0275
5 4 C 0.0175
6 5 I 0.0025
6 7 I 0.0025
6 9 C 0.0775
7 3 C 0.0175
8 5 C 0.0025
8 9 I 0.01
9 7 I 0.0025
9 12 C 0.095
10 17 C 0.0108306
11 8 I 0.0025
11 10 I 0.0025
11 14 C 0.124169
12 11 C 0.1175
13 7 C 0.0025
13 12 I 0.01
14 18 C 0.1675
15 12 I 0.0025
15 14 C 0.01
16 13 I 0.0025
16 15 I 0.0025
16 19 I 0.005
17 14 C 0.0233306
18 17 I 0.0025
18 19 C 0.175
19 20 C 0.19
20 21 C 0.2
